(module JP1 (layer F.Cu) (tedit 0)
  (descr <b>JUMPER</b>)
  (fp_text reference 3.3VJUMP (at -1.651 2.54 90) (layer F.SilkS)
    (effects (font (size 1.2065 1.2065) (thickness 0.12065)) (justify left bottom))
  )
  (fp_text value "" (at 2.921 2.54 90) (layer F.Fab)
    (effects (font (size 1.2065 1.2065) (thickness 0.12065)) (justify left bottom))
  )
  (fp_line (start -1.016 0) (end -1.27 -0.254) (layer F.SilkS) (width 0.1524))
  (fp_line (start -1.016 0) (end -1.27 0.254) (layer F.SilkS) (width 0.1524))
  (fp_line (start 1.016 0) (end 1.27 -0.254) (layer F.SilkS) (width 0.1524))
  (fp_line (start 1.016 0) (end 1.27 0.254) (layer F.SilkS) (width 0.1524))
  (fp_line (start 1.27 0.254) (end 1.27 2.286) (layer F.SilkS) (width 0.1524))
  (fp_line (start 1.016 2.54) (end 1.27 2.286) (layer F.SilkS) (width 0.1524))
  (fp_line (start 1.27 -2.286) (end 1.016 -2.54) (layer F.SilkS) (width 0.1524))
  (fp_line (start 1.27 -2.286) (end 1.27 -0.254) (layer F.SilkS) (width 0.1524))
  (fp_line (start 1.016 -2.54) (end -1.016 -2.54) (layer F.SilkS) (width 0.1524))
  (fp_line (start -1.27 -2.286) (end -1.016 -2.54) (layer F.SilkS) (width 0.1524))
  (fp_line (start -1.27 -2.286) (end -1.27 -0.254) (layer F.SilkS) (width 0.1524))
  (fp_line (start -1.27 0.254) (end -1.27 2.286) (layer F.SilkS) (width 0.1524))
  (fp_line (start -1.016 2.54) (end -1.27 2.286) (layer F.SilkS) (width 0.1524))
  (fp_line (start -1.016 2.54) (end 1.016 2.54) (layer F.SilkS) (width 0.1524))
  (fp_poly (pts (xy -0.3048 -0.9652) (xy 0.3048 -0.9652) (xy 0.3048 -1.5748) (xy -0.3048 -1.5748)) (layer F.Fab) (width 0))
  (fp_poly (pts (xy -0.3048 1.5748) (xy 0.3048 1.5748) (xy 0.3048 0.9652) (xy -0.3048 0.9652)) (layer F.Fab) (width 0))
  (pad 1 thru_hole oval (at 0 1.27) (size 2.6416 1.3208) (drill 0.9144) (layers *.Cu *.Mask)
    (solder_mask_margin 0.0762))
  (pad 2 thru_hole oval (at 0 -1.27) (size 2.6416 1.3208) (drill 0.9144) (layers *.Cu *.Mask)
    (solder_mask_margin 0.0762))
)
