(export (version D)
  (design
    (source "C:\\Users\\sebastianL\\Desktop\\Studienarbeit Git\\diy-homeautomation\\node\\pcb\\Sensornode.sch")
    (date "10.01.2021 14:43:38")
    (tool "Eeschema (5.1.8)-1")
    (sheet (number 1) (name /) (tstamps /)
      (title_block
        (title)
        (company)
        (rev)
        (date)
        (source Sensornode.sch)
        (comment (number 1) (value ""))
        (comment (number 2) (value ""))
        (comment (number 3) (value ""))
        (comment (number 4) (value "")))))
  (components
    (comp (ref IC1)
      (value ATMEGA328P)
      (footprint Sensornode:DIL28-3)
      (libsource (lib Sensornode-eagle-import) (part ATMEGA328P) (description ""))
      (sheetpath (names /) (tstamps /))
      (tstamp 06F92037))
    (comp (ref U$1)
      (value RFM69HW)
      (footprint Sensornode:RFM)
      (libsource (lib Sensornode-eagle-import) (part RFM69HW) (description ""))
      (sheetpath (names /) (tstamps /))
      (tstamp BABD3B23))
    (comp (ref Q1)
      (value 8MHz)
      (footprint Sensornode:HC49_S)
      (libsource (lib Sensornode-eagle-import) (part CRYSTALHC49S) (description ""))
      (sheetpath (names /) (tstamps /))
      (tstamp 2AFD6247))
    (comp (ref C1)
      (value 20pF)
      (footprint Sensornode:C2.5-3)
      (libsource (lib Sensornode-eagle-import) (part C2,5-3) (description ""))
      (sheetpath (names /) (tstamps /))
      (tstamp 19F102CC))
    (comp (ref C2)
      (value 20pF)
      (footprint Sensornode:C2.5-3)
      (libsource (lib Sensornode-eagle-import) (part C2,5-3) (description ""))
      (sheetpath (names /) (tstamps /))
      (tstamp 51743CEF))
    (comp (ref R2)
      (value 1M)
      (footprint Sensornode:0207_10)
      (libsource (lib Sensornode-eagle-import) (part R0207_10) (description ""))
      (sheetpath (names /) (tstamps /))
      (tstamp 5CFB3BF2))
    (comp (ref R3)
      (value 1M)
      (footprint Sensornode:0207_10)
      (libsource (lib Sensornode-eagle-import) (part R0207_10) (description ""))
      (sheetpath (names /) (tstamps /))
      (tstamp FB45FC39))
    (comp (ref C3)
      (value 0.1uF)
      (footprint Sensornode:C5B2.5)
      (libsource (lib Sensornode-eagle-import) (part C5_2.5) (description ""))
      (sheetpath (names /) (tstamps /))
      (tstamp DAA3AADF))
    (comp (ref C4)
      (value 0.1uF)
      (footprint Sensornode:C5B2.5)
      (libsource (lib Sensornode-eagle-import) (part C5_2.5) (description ""))
      (sheetpath (names /) (tstamps /))
      (tstamp F80B1965))
    (comp (ref C5)
      (value 0.1uF)
      (footprint Sensornode:C5B2.5)
      (libsource (lib Sensornode-eagle-import) (part C5_2.5) (description ""))
      (sheetpath (names /) (tstamps /))
      (tstamp 295533C0))
    (comp (ref R4)
      (value 10k)
      (footprint Sensornode:0207_10)
      (libsource (lib Sensornode-eagle-import) (part R0207_10) (description ""))
      (sheetpath (names /) (tstamps /))
      (tstamp 98DC0D12))
    (comp (ref S1)
      (value 31-XX)
      (footprint Sensornode:B3F-31XX)
      (libsource (lib Sensornode-eagle-import) (part 31-XX) (description ""))
      (sheetpath (names /) (tstamps /))
      (tstamp CEBFFD5E))
    (comp (ref U$2)
      (value TEMP-HUM-SENSOR-DHT11)
      (footprint Sensornode:TEMP-HUM-SENSOR-DHT11)
      (libsource (lib Sensornode-eagle-import) (part TEMP-HUM-SENSOR-DHT11) (description ""))
      (sheetpath (names /) (tstamps /))
      (tstamp A8B04D1A))
    (comp (ref R6)
      (value 5k)
      (footprint Sensornode:0207_10)
      (libsource (lib Sensornode-eagle-import) (part R0207_10) (description ""))
      (sheetpath (names /) (tstamps /))
      (tstamp CC77A60B))
    (comp (ref V-REG-1)
      (value MCP1702)
      (footprint Sensornode:TO92)
      (libsource (lib Sensornode-eagle-import) (part MCP1702) (description ""))
      (sheetpath (names /) (tstamps /))
      (tstamp 937BFB0B))
    (comp (ref LED2)
      (value LED3MM)
      (footprint Sensornode:LED3MM)
      (libsource (lib Sensornode-eagle-import) (part LED3MM) (description ""))
      (sheetpath (names /) (tstamps /))
      (tstamp 6A31474D))
    (comp (ref R7)
      (value 470)
      (footprint Sensornode:0207_10)
      (libsource (lib Sensornode-eagle-import) (part R0207_10) (description ""))
      (sheetpath (names /) (tstamps /))
      (tstamp C9A5D452))
    (comp (ref C6)
      (value 0.1uF)
      (footprint Sensornode:C5B2.5)
      (libsource (lib Sensornode-eagle-import) (part C5_2.5) (description ""))
      (sheetpath (names /) (tstamps /))
      (tstamp 2E21776E))
    (comp (ref C7)
      (value 10uF)
      (footprint Sensornode:E2-5)
      (libsource (lib Sensornode-eagle-import) (part CPOL-EUE2-5) (description ""))
      (sheetpath (names /) (tstamps /))
      (tstamp 493D4CA5))
    (comp (ref PROG1)
      (value PINHD-1X6)
      (footprint Sensornode:1X06)
      (libsource (lib Sensornode-eagle-import) (part PINHD-1X6) (description ""))
      (sheetpath (names /) (tstamps /))
      (tstamp 06D0EEAE))
    (comp (ref PIR1)
      (value MA03-1)
      (footprint Sensornode:MA03-1)
      (libsource (lib Sensornode-eagle-import) (part MA03-1) (description ""))
      (sheetpath (names /) (tstamps /))
      (tstamp 7DF21776))
    (comp (ref US1)
      (value MA04-1)
      (footprint Sensornode:MA04-1)
      (fields
        (field (name SPICEPREFIX) E))
      (libsource (lib Sensornode-eagle-import) (part MA04-1) (description ""))
      (sheetpath (names /) (tstamps /))
      (tstamp CF4A4794))
    (comp (ref T1)
      (value BC547)
      (footprint Sensornode:TO92)
      (libsource (lib Sensornode-eagle-import) (part BC547) (description ""))
      (sheetpath (names /) (tstamps /))
      (tstamp 011D2A96))
    (comp (ref R1)
      (value 68k)
      (footprint Sensornode:0207_10)
      (libsource (lib Sensornode-eagle-import) (part R0207_10) (description ""))
      (sheetpath (names /) (tstamps /))
      (tstamp B13EB52F))
    (comp (ref BATT1)
      (value PINHD-1X2_90)
      (footprint Sensornode:1X02_90)
      (libsource (lib Sensornode-eagle-import) (part PINHD-1X2_90) (description ""))
      (sheetpath (names /) (tstamps /))
      (tstamp B96BFC32))
    (comp (ref X1)
      (value W237-102)
      (footprint Sensornode:W237-102)
      (libsource (lib Sensornode-eagle-import) (part W237-102) (description ""))
      (sheetpath (names /) (tstamps /))
      (tstamp 753049C4))
    (comp (ref J1)
      (value 1053400-1)
      (footprint Sensornode:TE_1053400-1)
      (libsource (lib Sensornode-eagle-import) (part 1053400-1) (description ""))
      (sheetpath (names /) (tstamps /))
      (tstamp 2CE6A523))
    (comp (ref Q2)
      (value BC556)
      (footprint Sensornode:TO92-EBC)
      (libsource (lib Sensornode-eagle-import) (part BC556) (description ""))
      (sheetpath (names /) (tstamps /))
      (tstamp DA191B3C))
    (comp (ref R5)
      (value 3.3k)
      (footprint Sensornode:0207_10)
      (libsource (lib Sensornode-eagle-import) (part R0207_10) (description ""))
      (sheetpath (names /) (tstamps /))
      (tstamp 82AE158E))
    (comp (ref IC2)
      (value CNY74-2H)
      (footprint Sensornode:DIP762W51P254L991H470Q8)
      (fields
        (field (name SPICEPREFIX) E))
      (libsource (lib Sensornode-eagle-import) (part CNY74-2H) (description ""))
      (sheetpath (names /) (tstamps /))
      (tstamp 541775CA))
    (comp (ref R8)
      (value 2k2)
      (footprint Sensornode:0207_10)
      (libsource (lib Sensornode-eagle-import) (part R0207_10) (description ""))
      (sheetpath (names /) (tstamps /))
      (tstamp D81AD4FA))
    (comp (ref R9)
      (value ~10)
      (footprint Sensornode:0207_10)
      (libsource (lib Sensornode-eagle-import) (part R0207_10) (description ""))
      (sheetpath (names /) (tstamps /))
      (tstamp 49348D1B))
    (comp (ref 3.3VJUMP1)
      (value JP1Q)
      (footprint Sensornode:JP1)
      (libsource (lib Sensornode-eagle-import) (part JP1Q) (description ""))
      (sheetpath (names /) (tstamps /))
      (tstamp 1E4A4F7E))
    (comp (ref DEKO1)
      (value PINHD-1X2_90)
      (footprint Sensornode:1X02_90)
      (libsource (lib Sensornode-eagle-import) (part PINHD-1X2_90) (description ""))
      (sheetpath (names /) (tstamps /))
      (tstamp 9560F755))
    (comp (ref JP1)
      (value JP3Q)
      (footprint Sensornode:JP3Q)
      (libsource (lib Sensornode-eagle-import) (part JP3Q) (description ""))
      (sheetpath (names /) (tstamps /))
      (tstamp 2F430EF2))
    (comp (ref D1)
      (value 1N4148DO35-7)
      (footprint Sensornode:DO35-7)
      (libsource (lib Sensornode-eagle-import) (part 1N4148DO35-7) (description ""))
      (sheetpath (names /) (tstamps /))
      (tstamp 8D141E84))
    (comp (ref SV1)
      (value MA04-1)
      (footprint Sensornode:MA04-1)
      (libsource (lib Sensornode-eagle-import) (part MA04-1) (description ""))
      (sheetpath (names /) (tstamps /))
      (tstamp 5FF7FDBE)))
  (libparts
    (libpart (lib Sensornode-eagle-import) (part 1053400-1)
      (fields
        (field (name Reference) J)
        (field (name Value) 1053400-1))
      (pins
        (pin (num 1) (name 1) (type passive))
        (pin (num 2) (name 2) (type passive))
        (pin (num 3) (name 2) (type passive))
        (pin (num 4) (name 2) (type passive))
        (pin (num 5) (name 2) (type passive))))
    (libpart (lib Sensornode-eagle-import) (part 1N4148DO35-7)
      (fields
        (field (name Reference) D)
        (field (name Value) 1N4148DO35-7))
      (pins
        (pin (num A) (name A) (type passive))
        (pin (num C) (name C) (type passive))))
    (libpart (lib Sensornode-eagle-import) (part 31-XX)
      (fields
        (field (name Reference) S)
        (field (name Value) 31-XX))
      (pins
        (pin (num 1) (name P) (type passive))
        (pin (num 2) (name S) (type passive))))
    (libpart (lib Sensornode-eagle-import) (part ATMEGA328P)
      (fields
        (field (name Reference) IC)
        (field (name Value) ATMEGA328P))
      (pins
        (pin (num 1) (name "PC6(/RESET/PCI14)") (type BiDi))
        (pin (num 2) (name "(PCI16/RXD)PD0") (type BiDi))
        (pin (num 3) (name "(PCI17/TXD)PD1") (type BiDi))
        (pin (num 4) (name "(PCI18/INT0)PD2") (type BiDi))
        (pin (num 5) (name "(PCI19/INT1/OC2B)PD3") (type BiDi))
        (pin (num 6) (name "(PCI20/XCK/T0)PD4") (type BiDi))
        (pin (num 7) (name VCC) (type BiDi))
        (pin (num 8) (name GND) (type BiDi))
        (pin (num 9) (name "PB6(XTAL1/TOSC1/PCI6)") (type BiDi))
        (pin (num 10) (name "PB7(XTAL2/TOSC2/PCI7)") (type BiDi))
        (pin (num 11) (name "(PCI21/T1/OC0B)PD5") (type BiDi))
        (pin (num 12) (name "(PCI22/AIN0OC0A)PD6") (type BiDi))
        (pin (num 13) (name "(PCI23/AIN1)PD7") (type BiDi))
        (pin (num 14) (name "(PCI0/ICP/CLKO)PB0") (type BiDi))
        (pin (num 15) (name "(PCI1/OC1A/OC1S)PB1") (type BiDi))
        (pin (num 16) (name "(PCI2/SS/OC1B)PB2") (type BiDi))
        (pin (num 17) (name "(PCI3/MOSI/OC2A)PB3") (type BiDi))
        (pin (num 18) (name "(PCI4/MISO)PB4") (type BiDi))
        (pin (num 19) (name "(PCI5/SCK)PB5") (type BiDi))
        (pin (num 20) (name AVCC) (type BiDi))
        (pin (num 21) (name AREF) (type BiDi))
        (pin (num 22) (name AGND) (type BiDi))
        (pin (num 23) (name "(PCI8/ADC0)PC0") (type BiDi))
        (pin (num 24) (name "(PCI9/ADC1)PC1") (type BiDi))
        (pin (num 25) (name "(PCI10/ADC2)PC2") (type BiDi))
        (pin (num 26) (name "(PCI11/ADC3)PC3") (type BiDi))
        (pin (num 27) (name "(PCI12/ADC4/SDA)PC4") (type BiDi))
        (pin (num 28) (name "(PCI13/ADC5/SCL)PC5") (type BiDi))))
    (libpart (lib Sensornode-eagle-import) (part BC547)
      (fields
        (field (name Reference) T)
        (field (name Value) BC547))
      (pins
        (pin (num 1) (name E) (type passive))
        (pin (num 2) (name B) (type passive))
        (pin (num 3) (name C) (type passive))))
    (libpart (lib Sensornode-eagle-import) (part BC556)
      (fields
        (field (name Reference) Q)
        (field (name Value) BC556))
      (pins
        (pin (num B) (name B) (type passive))
        (pin (num C) (name C) (type passive))
        (pin (num E) (name E) (type passive))))
    (libpart (lib Sensornode-eagle-import) (part C2,5-3)
      (fields
        (field (name Reference) C)
        (field (name Value) C2,5-3))
      (pins
        (pin (num 1) (name 1) (type passive))
        (pin (num 2) (name 2) (type passive))))
    (libpart (lib Sensornode-eagle-import) (part C5_2.5)
      (fields
        (field (name Reference) C)
        (field (name Value) C5_2.5))
      (pins
        (pin (num 1) (name 1) (type passive))
        (pin (num 2) (name 2) (type passive))))
    (libpart (lib Sensornode-eagle-import) (part CNY74-2H)
      (fields
        (field (name Reference) U)
        (field (name Value) CNY74-2H))
      (pins
        (pin (num 1) (name A) (type passive))
        (pin (num 2) (name C) (type passive))
        (pin (num 3) (name C) (type passive))
        (pin (num 4) (name A) (type passive))
        (pin (num 5) (name ET) (type passive))
        (pin (num 6) (name CT) (type passive))
        (pin (num 7) (name CT) (type passive))
        (pin (num 8) (name ET) (type passive))))
    (libpart (lib Sensornode-eagle-import) (part CPOL-EUE2-5)
      (fields
        (field (name Reference) C)
        (field (name Value) CPOL-EUE2-5))
      (pins
        (pin (num +) (name +) (type passive))
        (pin (num -) (name -) (type passive))))
    (libpart (lib Sensornode-eagle-import) (part CRYSTALHC49S)
      (fields
        (field (name Reference) Q)
        (field (name Value) CRYSTALHC49S))
      (pins
        (pin (num 1) (name 1) (type passive))
        (pin (num 2) (name 2) (type passive))))
    (libpart (lib Sensornode-eagle-import) (part JP1Q)
      (fields
        (field (name Reference) JP)
        (field (name Value) JP1Q))
      (pins
        (pin (num 1) (name 1) (type passive))
        (pin (num 2) (name 2) (type passive))))
    (libpart (lib Sensornode-eagle-import) (part JP3Q)
      (fields
        (field (name Reference) JP)
        (field (name Value) JP3Q))
      (pins
        (pin (num 1) (name 1) (type passive))
        (pin (num 2) (name 2) (type passive))
        (pin (num 3) (name 3) (type passive))
        (pin (num 4) (name 4) (type passive))
        (pin (num 5) (name 5) (type passive))
        (pin (num 6) (name 6) (type passive))))
    (libpart (lib Sensornode-eagle-import) (part LED3MM)
      (fields
        (field (name Reference) LED)
        (field (name Value) LED3MM))
      (pins
        (pin (num A) (name A) (type passive))
        (pin (num K) (name C) (type passive))))
    (libpart (lib Sensornode-eagle-import) (part MA03-1)
      (fields
        (field (name Reference) SV)
        (field (name Value) MA03-1))
      (pins
        (pin (num 1) (name 1) (type passive))
        (pin (num 2) (name 2) (type passive))
        (pin (num 3) (name 3) (type passive))))
    (libpart (lib Sensornode-eagle-import) (part MA04-1)
      (fields
        (field (name Reference) SV)
        (field (name Value) MA04-1))
      (pins
        (pin (num 1) (name 1) (type passive))
        (pin (num 2) (name 2) (type passive))
        (pin (num 3) (name 3) (type passive))
        (pin (num 4) (name 4) (type passive))))
    (libpart (lib Sensornode-eagle-import) (part MCP1702)
      (fields
        (field (name Reference) V-REG-)
        (field (name Value) MCP1702))
      (pins
        (pin (num 1) (name P$2) (type power_in))
        (pin (num 2) (name P$1) (type power_in))
        (pin (num 3) (name P$3) (type power_in))))
    (libpart (lib Sensornode-eagle-import) (part PINHD-1X2_90)
      (fields
        (field (name Reference) JP)
        (field (name Value) PINHD-1X2_90))
      (pins
        (pin (num 1) (name 1) (type passive))
        (pin (num 2) (name 2) (type passive))))
    (libpart (lib Sensornode-eagle-import) (part PINHD-1X6)
      (fields
        (field (name Reference) JP)
        (field (name Value) PINHD-1X6))
      (pins
        (pin (num 1) (name 1) (type passive))
        (pin (num 2) (name 2) (type passive))
        (pin (num 3) (name 3) (type passive))
        (pin (num 4) (name 4) (type passive))
        (pin (num 5) (name 5) (type passive))
        (pin (num 6) (name 6) (type passive))))
    (libpart (lib Sensornode-eagle-import) (part R0207_10)
      (fields
        (field (name Reference) R)
        (field (name Value) R0207_10))
      (pins
        (pin (num 1) (name 1) (type passive))
        (pin (num 2) (name 2) (type passive))))
    (libpart (lib Sensornode-eagle-import) (part RFM69HW)
      (fields
        (field (name Value) RFM69HW))
      (pins
        (pin (num ANT) (name ANT) (type BiDi))
        (pin (num DIO0) (name DIO0) (type BiDi))
        (pin (num DIO1) (name DIO1) (type BiDi))
        (pin (num DIO2) (name DIO2) (type BiDi))
        (pin (num DIO3) (name DIO3) (type BiDi))
        (pin (num DIO4) (name DIO4) (type BiDi))
        (pin (num DIO5) (name DIO5) (type BiDi))
        (pin (num GNDA) (name GNDA) (type BiDi))
        (pin (num GNDB) (name GNDB) (type BiDi))
        (pin (num MISO) (name MISO) (type BiDi))
        (pin (num MOSI) (name MOSI) (type BiDi))
        (pin (num NC) (name NC) (type BiDi))
        (pin (num NSS) (name NSS) (type BiDi))
        (pin (num RESET) (name RESET) (type BiDi))
        (pin (num SCK) (name SCK) (type BiDi))
        (pin (num VCC) (name VCC) (type BiDi))))
    (libpart (lib Sensornode-eagle-import) (part TEMP-HUM-SENSOR-DHT11)
      (fields
        (field (name Value) TEMP-HUM-SENSOR-DHT11))
      (pins
        (pin (num 1) (name VDD) (type power_in))
        (pin (num 2) (name DAT) (type BiDi))
        (pin (num 3) (name N.C.) (type passive))
        (pin (num 4) (name GND) (type power_in))))
    (libpart (lib Sensornode-eagle-import) (part W237-102)
      (fields
        (field (name Reference) X)
        (field (name Value) W237-102))
      (pins
        (pin (num 1) (name KL) (type passive))
        (pin (num 2) (name KL) (type passive)))))
  (libraries
    (library (logical Sensornode-eagle-import)
      (uri "C:\\Users\\sebastianL\\Desktop\\Studienarbeit Git\\diy-homeautomation\\node\\pcb/Sensornode-eagle-import.lib")))
  (nets
    (net (code 1) (name "Net-(LED2-PadK)")
      (node (ref R7) (pin 2))
      (node (ref LED2) (pin K)))
    (net (code 2) (name GND)
      (node (ref J1) (pin 5))
      (node (ref X1) (pin 1))
      (node (ref J1) (pin 2))
      (node (ref J1) (pin 3))
      (node (ref J1) (pin 4))
      (node (ref C3) (pin 2))
      (node (ref R3) (pin 1))
      (node (ref C2) (pin 2))
      (node (ref U$1) (pin GNDB))
      (node (ref U$1) (pin GNDA))
      (node (ref R9) (pin 1))
      (node (ref BATT1) (pin 1))
      (node (ref R8) (pin 1))
      (node (ref SV1) (pin 2))
      (node (ref US1) (pin 4))
      (node (ref PIR1) (pin 3))
      (node (ref C5) (pin 2))
      (node (ref C4) (pin 2))
      (node (ref C7) (pin -))
      (node (ref PROG1) (pin 6))
      (node (ref T1) (pin 1))
      (node (ref S1) (pin 1))
      (node (ref U$2) (pin 4))
      (node (ref V-REG-1) (pin 1))
      (node (ref R7) (pin 1))
      (node (ref IC1) (pin 22))
      (node (ref IC1) (pin 8))
      (node (ref C1) (pin 1)))
    (net (code 3) (name "Net-(U$2-Pad3)")
      (node (ref U$2) (pin 3)))
    (net (code 4) (name "Net-(R1-Pad1)")
      (node (ref R1) (pin 1))
      (node (ref T1) (pin 2)))
    (net (code 5) (name "Net-(3.3VJUMP1-Pad2)")
      (node (ref 3.3VJUMP1) (pin 2))
      (node (ref PROG1) (pin 5)))
    (net (code 6) (name "Net-(PROG1-Pad4)")
      (node (ref PROG1) (pin 4)))
    (net (code 7) (name "Net-(C6-Pad1)")
      (node (ref C6) (pin 1))
      (node (ref PROG1) (pin 1)))
    (net (code 8) (name "Net-(U$1-PadDIO3)")
      (node (ref U$1) (pin DIO3)))
    (net (code 9) (name "Net-(U$1-PadDIO2)")
      (node (ref U$1) (pin DIO2)))
    (net (code 10) (name "Net-(U$1-PadDIO1)")
      (node (ref U$1) (pin DIO1)))
    (net (code 11) (name "Net-(IC1-Pad4)")
      (node (ref IC1) (pin 4))
      (node (ref U$1) (pin DIO0)))
    (net (code 12) (name "Net-(U$1-PadDIO4)")
      (node (ref U$1) (pin DIO4)))
    (net (code 13) (name "Net-(IC1-Pad26)")
      (node (ref IC1) (pin 26)))
    (net (code 14) (name "Net-(IC1-Pad25)")
      (node (ref IC1) (pin 25)))
    (net (code 15) (name "Net-(IC1-Pad24)")
      (node (ref IC1) (pin 24)))
    (net (code 16) (name "Net-(IC1-Pad21)")
      (node (ref IC1) (pin 21)))
    (net (code 17) (name "Net-(C2-Pad1)")
      (node (ref C2) (pin 1))
      (node (ref Q1) (pin 2))
      (node (ref IC1) (pin 10)))
    (net (code 18) (name "Net-(C1-Pad2)")
      (node (ref Q1) (pin 1))
      (node (ref C1) (pin 2))
      (node (ref IC1) (pin 9)))
    (net (code 19) (name "Net-(IC1-Pad19)")
      (node (ref U$1) (pin SCK))
      (node (ref IC1) (pin 19)))
    (net (code 20) (name "Net-(U$1-PadRESET)")
      (node (ref U$1) (pin RESET)))
    (net (code 21) (name "Net-(IC1-Pad16)")
      (node (ref IC1) (pin 16))
      (node (ref U$1) (pin NSS)))
    (net (code 22) (name "Net-(U$1-PadNC)")
      (node (ref U$1) (pin NC)))
    (net (code 23) (name "Net-(IC1-Pad17)")
      (node (ref IC1) (pin 17))
      (node (ref U$1) (pin MOSI)))
    (net (code 24) (name "Net-(IC1-Pad18)")
      (node (ref IC1) (pin 18))
      (node (ref U$1) (pin MISO)))
    (net (code 25) (name "Net-(U$1-PadDIO5)")
      (node (ref U$1) (pin DIO5)))
    (net (code 26) (name +5V)
      (node (ref R2) (pin 2))
      (node (ref C4) (pin 1))
      (node (ref PIR1) (pin 1))
      (node (ref V-REG-1) (pin 2))
      (node (ref BATT1) (pin 2))
      (node (ref SV1) (pin 1))
      (node (ref D1) (pin A))
      (node (ref JP1) (pin 1)))
    (net (code 27) (name "Net-(DEKO1-Pad1)")
      (node (ref JP1) (pin 2))
      (node (ref JP1) (pin 6))
      (node (ref JP1) (pin 4))
      (node (ref DEKO1) (pin 1)))
    (net (code 28) (name "Net-(D1-PadC)")
      (node (ref D1) (pin C))
      (node (ref JP1) (pin 3)))
    (net (code 29) (name "Net-(Q2-PadC)")
      (node (ref Q2) (pin C))
      (node (ref US1) (pin 1)))
    (net (code 30) (name "Net-(IC1-Pad28)")
      (node (ref IC1) (pin 28))
      (node (ref SV1) (pin 4)))
    (net (code 31) (name "Net-(IC1-Pad27)")
      (node (ref SV1) (pin 3))
      (node (ref IC1) (pin 27)))
    (net (code 32) (name "Net-(C6-Pad2)")
      (node (ref IC1) (pin 1))
      (node (ref C6) (pin 2))
      (node (ref R4) (pin 1)))
    (net (code 33) (name "Net-(IC1-Pad3)")
      (node (ref IC1) (pin 3))
      (node (ref PROG1) (pin 2)))
    (net (code 34) (name "Net-(IC1-Pad2)")
      (node (ref PROG1) (pin 3))
      (node (ref IC1) (pin 2)))
    (net (code 35) (name "Net-(PIR1-Pad2)")
      (node (ref PIR1) (pin 2))
      (node (ref R1) (pin 2)))
    (net (code 36) (name "Net-(IC2-Pad6)")
      (node (ref IC2) (pin 6)))
    (net (code 37) (name "Net-(IC2-Pad5)")
      (node (ref IC2) (pin 5)))
    (net (code 38) (name "Net-(IC2-Pad4)")
      (node (ref IC2) (pin 4)))
    (net (code 39) (name "Net-(IC2-Pad3)")
      (node (ref IC2) (pin 3)))
    (net (code 40) (name "Net-(IC2-Pad8)")
      (node (ref IC2) (pin 8))
      (node (ref R9) (pin 2)))
    (net (code 41) (name "Net-(DEKO1-Pad2)")
      (node (ref IC2) (pin 7))
      (node (ref DEKO1) (pin 2)))
    (net (code 42) (name "Net-(IC2-Pad2)")
      (node (ref R8) (pin 2))
      (node (ref IC2) (pin 2)))
    (net (code 43) (name "Net-(Q2-PadB)")
      (node (ref Q2) (pin B))
      (node (ref R5) (pin 2)))
    (net (code 44) (name "Net-(J1-Pad1)")
      (node (ref J1) (pin 1))
      (node (ref U$1) (pin ANT)))
    (net (code 45) (name "Net-(IC1-Pad5)")
      (node (ref IC1) (pin 5))
      (node (ref T1) (pin 3))
      (node (ref S1) (pin 2))
      (node (ref X1) (pin 2)))
    (net (code 46) (name +3V3)
      (node (ref U$2) (pin 1))
      (node (ref R4) (pin 2))
      (node (ref 3.3VJUMP1) (pin 1))
      (node (ref C7) (pin +))
      (node (ref R6) (pin 1))
      (node (ref V-REG-1) (pin 3))
      (node (ref IC1) (pin 20))
      (node (ref Q2) (pin E))
      (node (ref C5) (pin 1))
      (node (ref U$1) (pin VCC))
      (node (ref IC1) (pin 7))
      (node (ref JP1) (pin 5)))
    (net (code 47) (name "Net-(IC1-Pad11)")
      (node (ref IC1) (pin 11))
      (node (ref R5) (pin 1)))
    (net (code 48) (name "Net-(IC1-Pad13)")
      (node (ref US1) (pin 2))
      (node (ref IC1) (pin 13)))
    (net (code 49) (name "Net-(IC1-Pad12)")
      (node (ref US1) (pin 3))
      (node (ref IC1) (pin 12)))
    (net (code 50) (name "Net-(IC1-Pad15)")
      (node (ref IC1) (pin 15))
      (node (ref IC2) (pin 1)))
    (net (code 51) (name "Net-(IC1-Pad14)")
      (node (ref LED2) (pin A))
      (node (ref IC1) (pin 14)))
    (net (code 52) (name "Net-(C3-Pad1)")
      (node (ref IC1) (pin 23))
      (node (ref R2) (pin 1))
      (node (ref R3) (pin 2))
      (node (ref C3) (pin 1)))
    (net (code 53) (name "Net-(IC1-Pad6)")
      (node (ref R6) (pin 2))
      (node (ref IC1) (pin 6))
      (node (ref U$2) (pin 2)))))