(module B3F-31XX (layer F.Cu) (tedit 0)
  (descr "<b>OMRON SWITCH</b>")
  (fp_text reference S1 (at -2.54 -2.54) (layer F.SilkS) hide
    (effects (font (size 1.2065 1.2065) (thickness 0.127)) (justify left bottom))
  )
  (fp_text value "" (at -3.683 5.969) (layer F.Fab)
    (effects (font (size 1.2065 1.2065) (thickness 0.12065)) (justify left bottom))
  )
  (fp_line (start 3.683 -2.667) (end 3.683 0) (layer F.Fab) (width 0.1524))
  (fp_line (start 3.683 0) (end 3.683 3.556) (layer F.SilkS) (width 0.1524))
  (fp_line (start 3.683 3.556) (end 2.54 3.556) (layer F.SilkS) (width 0.1524))
  (fp_line (start -3.683 0) (end -3.683 3.556) (layer F.SilkS) (width 0.1524))
  (fp_line (start -3.683 0) (end -3.683 -2.667) (layer F.Fab) (width 0.1524))
  (fp_line (start -3.683 -2.667) (end -3.429 -2.667) (layer F.Fab) (width 0.1524))
  (fp_line (start -3.429 -2.667) (end -3.429 0) (layer F.Fab) (width 0.1524))
  (fp_line (start -3.429 3.302) (end -0.635 3.302) (layer F.SilkS) (width 0.1524))
  (fp_line (start 3.429 0) (end 3.429 -2.667) (layer F.Fab) (width 0.1524))
  (fp_line (start 3.429 -2.667) (end 3.683 -2.667) (layer F.Fab) (width 0.1524))
  (fp_line (start -2.54 3.556) (end -2.54 3.81) (layer F.SilkS) (width 0.1524))
  (fp_line (start -2.54 3.81) (end -1.27 3.81) (layer F.SilkS) (width 0.1524))
  (fp_line (start 2.54 3.556) (end 2.54 3.81) (layer F.SilkS) (width 0.1524))
  (fp_line (start 2.54 3.556) (end -3.683 3.556) (layer F.SilkS) (width 0.1524))
  (fp_line (start -1.27 3.81) (end -1.27 4.191) (layer F.SilkS) (width 0.1524))
  (fp_line (start -1.27 3.81) (end 1.27 3.81) (layer F.SilkS) (width 0.1524))
  (fp_line (start -1.27 4.191) (end 1.27 4.191) (layer F.SilkS) (width 0.1524))
  (fp_line (start 1.27 3.81) (end 1.27 4.191) (layer F.SilkS) (width 0.1524))
  (fp_line (start 1.27 3.81) (end 2.54 3.81) (layer F.SilkS) (width 0.1524))
  (fp_line (start -0.635 3.302) (end -0.635 2.286) (layer F.SilkS) (width 0.1524))
  (fp_line (start -0.635 3.302) (end 0.635 3.302) (layer F.SilkS) (width 0.1524))
  (fp_line (start -0.635 2.286) (end 0.635 2.286) (layer F.SilkS) (width 0.1524))
  (fp_line (start 0.635 3.302) (end 0.635 2.286) (layer F.SilkS) (width 0.1524))
  (fp_line (start 0.635 3.302) (end 3.429 3.302) (layer F.SilkS) (width 0.1524))
  (fp_line (start -3.429 0) (end -2.667 0) (layer F.SilkS) (width 0.1524))
  (fp_line (start -2.667 -0.254) (end -2.667 0) (layer F.SilkS) (width 0.1524))
  (fp_line (start -2.667 -0.254) (end -1.905 -0.254) (layer F.SilkS) (width 0.1524))
  (fp_line (start -1.905 0) (end -1.905 -0.254) (layer F.SilkS) (width 0.1524))
  (fp_line (start -1.905 0) (end -0.762 0) (layer F.SilkS) (width 0.1524))
  (fp_line (start -0.762 0.254) (end -0.762 0) (layer F.SilkS) (width 0.1524))
  (fp_line (start -0.762 0.254) (end 0.762 0.254) (layer F.SilkS) (width 0.1524))
  (fp_line (start 0.762 0) (end 0.762 0.254) (layer F.SilkS) (width 0.1524))
  (fp_line (start 0.762 0) (end 1.778 0) (layer F.SilkS) (width 0.1524))
  (fp_line (start 1.778 0) (end 1.778 -0.254) (layer F.SilkS) (width 0.1524))
  (fp_line (start 1.778 -0.254) (end 2.667 -0.254) (layer F.SilkS) (width 0.1524))
  (fp_line (start 2.667 0) (end 2.667 -0.254) (layer F.SilkS) (width 0.1524))
  (fp_line (start 2.667 0) (end 3.429 0) (layer F.SilkS) (width 0.1524))
  (fp_line (start -1.651 0.889) (end -0.762 0.889) (layer F.Fab) (width 0.1524))
  (fp_line (start -0.762 0.889) (end 0.508 1.27) (layer F.Fab) (width 0.1524))
  (fp_line (start 0.508 0.889) (end 1.651 0.889) (layer F.Fab) (width 0.1524))
  (fp_line (start 0 1.27) (end 0 1.651) (layer F.Fab) (width 0.1524))
  (fp_line (start -0.254 1.651) (end 0 1.651) (layer F.Fab) (width 0.1524))
  (fp_line (start 0 1.651) (end 0.254 1.651) (layer F.Fab) (width 0.1524))
  (fp_line (start -3.429 0.508) (end -3.429 2.032) (layer F.Fab) (width 0.1524))
  (fp_line (start -3.429 0.508) (end -3.429 0) (layer F.SilkS) (width 0.1524))
  (fp_line (start -3.429 2.032) (end -3.429 3.302) (layer F.SilkS) (width 0.1524))
  (fp_line (start 3.429 2.032) (end 3.429 3.302) (layer F.SilkS) (width 0.1524))
  (fp_line (start 3.429 0.508) (end 3.429 2.032) (layer F.Fab) (width 0.1524))
  (fp_line (start 3.429 0.508) (end 3.429 0) (layer F.SilkS) (width 0.1524))
  (pad 1 thru_hole circle (at -2.2606 1.2446) (size 1.4224 1.4224) (drill 1.016) (layers *.Cu *.Mask)
    (solder_mask_margin 0.0762))
  (pad 2 thru_hole circle (at 2.2606 1.2446) (size 1.4224 1.4224) (drill 1.016) (layers *.Cu *.Mask)
    (solder_mask_margin 0.0762))
  (pad 3 thru_hole circle (at -3.5052 -1.2446) (size 2.159 2.159) (drill 1.4986) (layers *.Cu *.Mask)
    (solder_mask_margin 0.0762))
  (pad 4 thru_hole circle (at 3.5052 -1.2446) (size 2.159 2.159) (drill 1.4986) (layers *.Cu *.Mask)
    (solder_mask_margin 0.0762))
)
